{
  "type": "service_account",
  "project_id": "stoked-name-334317",
  "private_key_id": "1b781ebfe55d305b73acaf822bdfe49b02c7c472",
  "private_key": "-----BEGIN PRIVATE KEY-----\nMIIEvwIBADANBgkqhkiG9w0BAQEFAASCBKkwggSlAgEAAoIBAQDkkeNQYdq72TDE\n9cE1UP5bYVk8ois7hTviiV/5h0vis/c84fb086Wz+VNhlKljLDjdd597UHWU8zNZ\nFLPJ6XAuaZ7d5a92pptIp70Xi8aoZawI9lTVqbinL4Og6Biq5Ctugj0KHIrwG9P/\ntUi5YHe9Hfuuj+f79IVKY+srU72HU7aDEwu2OuvHgK6+PRBr8GQyVcysurCyGNB2\nzg6yAK5IqjkLPc9LKaGC6XlTk6aqzBPJ+A/06EJApxynt63PNRVrma617TjLeAGp\ny9bGkemWn5QJFJrt29PEUPbrI6BP7WjUQ8SWxJFMuX9yMxSUyipt99m83LS/Q9sp\noo7yaI9LAgMBAAECggEAHMOtRybhZ4V4KTlCNMr6D5brK4G/DhEAzcv6+4SGzMNY\nKF3Jfd8RqdoFH8EdJgFhMKHGvLaN7Y5DloDP9Wd+uiCJoSQwFi72WMjfN5DcEcIl\nycTyPSdMOSH2HzBGNm9bdd9G/jhEVd4yqjnuqoGU4ARfcYLjr2YAxjFX3Y5+ygJG\nkd35QgCqLyBbgPkjteKpb5L6zItxUOQlUGoV5sUW6+Pn9lUF2iarOLW0QrWYTtIc\nAjb3PsaorCG6kQ5EctQ0EhJnU8pSHE63KBx83bp71xH2zCoGEeE1MYz0Wkg1L8cE\ndhOAwHsQGQ0Oq2RlAy/swCbkaZg/8sGuwxBBHbx4bQKBgQDyhpals/c44/rpzqAs\nBiIWw6jF77LvLN3RC1isIKCELqIG8NVA1qudskMonZVZ+N0UJRuoWXHgx0HD/5IU\nnUB5lJ8Akf3/RFvbjWKP382+sIJgxPMZVWEN4MvHEHV++YV3a1B9KOEjim2Q6n6W\nyztstKxuOTf82XvIQd7W1knphwKBgQDxRM6eaKLEgqF708QLBpxtXWeoEQgh+0KY\nmU6rMJQedmFojhAWa0nPYJFNZHDlzRCauU0oXzOpmfmh4t0W6yI5h0ka7bQY3rmV\nWN9CdL8fGiSHnNEfJAKNzrgUXHiKiBQo0BylD6BlY+Zo1/jEIuRN0sIdI63bs6IA\nyTiQBbjNHQKBgQDPJALxXmeOULITFmcZktd0yAKTpKoYvCJslJtU0L0oiMfc07/g\nlDmaBBJ2Uzmn0fXJafRYcqTgDm/uXo+/SZwy+6xeiVL+vr0SJY0EQ2vwLcP9sNnN\nTm4Js3F5AWbJX4cOOztQ2ySH/YidWJtsYgLMUvhfYEGglYSywwf4SKhyawKBgQDd\nTQC8eju6Rhv66a4rct/uzLs0hJLSIJbgQ9bN3VwvaORGM/B7r+Ne7TO6KkQH9QWi\n9g7Y1iIcEhjQrbefuwOEgxvCMIB+Q2U0oPUADvfzflY9cdC7YJtbGV7thjgm0VS0\nbtena2LzPSPtzRPoTBzfaU8VzVE+cVFKqUdRi34L3QKBgQDbL34ilUeOZ6s0KKtV\nJud6h5zrtJm91a4VwjA88ZCN3sAUaTZ1SmrqCQjFe0fzAoGIPlyxW+C1EmynJlTM\nd30lhJBSSip08si2Z5rG91k1Kymkcf6TArerCL6hTIpSOZRqFOEdc4BqhKiin5Xv\ngpJmK7n5wYWRc+kBvz9GE16l0A==\n-----END PRIVATE KEY-----\n",
  "client_email": "fsdschedule@stoked-name-334317.iam.gserviceaccount.com",
  "client_id": "116678184565325153497",
  "auth_uri": "https://accounts.google.com/o/oauth2/auth",
  "token_uri": "https://oauth2.googleapis.com/token",
  "auth_provider_x509_cert_url": "https://www.googleapis.com/oauth2/v1/certs",
  "client_x509_cert_url": "https://www.googleapis.com/robot/v1/metadata/x509/fsdschedule%40stoked-name-334317.iam.gserviceaccount.com"
}
